<svg width="21" height="20" viewBox="0 0 21 20" fill="none" xmlns="http://www.w3.org/2000/svg">
<path d="M6 16C4.9 16 4.01 16.9 4.01 18C4.01 19.1 4.9 20 6 20C7.1 20 8 19.1 8 18C8 16.9 7.1 16 6 16ZM0 1C0 1.55 0.45 2 1 2H2L5.6 9.59L4.25 12.03C3.52 13.37 4.48 15 6 15H17C17.55 15 18 14.55 18 14C18 13.45 17.55 13 17 13H6L7.1 11H14.55C15.3 11 15.96 10.59 16.3 9.97L19.88 3.48C20.25 2.82 19.77 2 19.01 2H4.21L3.54 0.57C3.38 0.22 3.02 0 2.64 0H1C0.45 0 0 0.45 0 1ZM16 16C14.9 16 14.01 16.9 14.01 18C14.01 19.1 14.9 20 16 20C17.1 20 18 19.1 18 18C18 16.9 17.1 16 16 16Z" fill="#6E8BB7"/>
</svg>
